// Jest Snapshot v1, https://goo.gl/fbAQLP

exports[`match snapshot partners data 1`] = `
Array [
  Object {
    "latitude": "42.6661417",
    "longitude": "23.293435",
    "name": "Bluebell Robles",
    "partner_id": 12,
  },
  Object {
    "latitude": "42.7034111",
    "longitude": "23.4862259",
    "name": "Jamelia Waller",
    "partner_id": 1,
  },
  Object {
    "latitude": "42.1268151",
    "longitude": "24.7234766",
    "name": "Devon Mac",
    "partner_id": 2,
  },
  Object {
    "latitude": "42.6264989",
    "longitude": "23.4097679",
    "name": "Gracie-Leigh Mccallum",
    "partner_id": 3,
  },
  Object {
    "latitude": "42.6048396",
    "longitude": "23.4793636",
    "name": "Romy Harrison",
    "partner_id": 28,
  },
  Object {
    "latitude": "41.9279411",
    "longitude": "25.9083249",
    "name": "Lorna Montgomery",
    "partner_id": 7,
  },
  Object {
    "latitude": "42.7047197",
    "longitude": "23.395183",
    "name": "Ffion Firth",
    "partner_id": 8,
  },
  Object {
    "latitude": "41.5295527",
    "longitude": "25.4113927",
    "name": "Jayden-James Rawlings",
    "partner_id": 26,
  },
  Object {
    "latitude": "42.6049054",
    "longitude": "23.0519972",
    "name": "Francisco Fleming",
    "partner_id": 27,
  },
  Object {
    "latitude": "42.7724527",
    "longitude": "23.3558937",
    "name": "Jodie Dyer",
    "partner_id": 6,
  },
  Object {
    "latitude": "42.6634102",
    "longitude": "23.2681108",
    "name": "Billie-Jo Dunlap",
    "partner_id": 9,
  },
  Object {
    "latitude": "42.7242457",
    "longitude": "23.2441588",
    "name": "Sachin Chan",
    "partner_id": 10,
  },
  Object {
    "latitude": "42.6893403",
    "longitude": "27.7060827",
    "name": "Lorelei Compton",
    "partner_id": 4,
  },
  Object {
    "latitude": "42.2676642",
    "longitude": "23.6067589",
    "name": "Margot Mckay",
    "partner_id": 5,
  },
  Object {
    "latitude": "42.6612057",
    "longitude": "23.4147793",
    "name": "Una Beach",
    "partner_id": 11,
  },
  Object {
    "latitude": "43.2232383",
    "longitude": "27.8828709",
    "name": "Nadia Danabasheva",
    "partner_id": 31,
  },
  Object {
    "latitude": "43",
    "longitude": "24",
    "name": "Nur Combs",
    "partner_id": 13,
  },
  Object {
    "latitude": "42.6843963",
    "longitude": "23.1631643",
    "name": "Vincenzo Conner",
    "partner_id": 14,
  },
  Object {
    "latitude": "42.8192476",
    "longitude": "27.881862",
    "name": "Oliwia Trujillo",
    "partner_id": 15,
  },
  Object {
    "latitude": "42.6405549",
    "longitude": "23.3344239",
    "name": "Maddy Novak",
    "partner_id": 16,
  },
  Object {
    "latitude": "42.6545333",
    "longitude": "23.4078409",
    "name": "Kodi Collier",
    "partner_id": 17,
  },
  Object {
    "latitude": "42.5854492",
    "longitude": "23.4156356",
    "name": "Patience Lyon",
    "partner_id": 39,
  },
  Object {
    "latitude": "42.2608727",
    "longitude": "23.1252358",
    "name": "Vladimir Vasov",
    "partner_id": 18,
  },
  Object {
    "latitude": "42.8182819",
    "longitude": "23.3608871",
    "name": "Rada Ilieva",
    "partner_id": 24,
  },
  Object {
    "latitude": "42.7571084",
    "longitude": "23.4299324",
    "name": "Butterfree Crackersprout",
    "partner_id": 19,
  },
  Object {
    "latitude": "42.7232749",
    "longitude": "23.2586465",
    "name": "Oscarbait Crackersprout",
    "partner_id": 20,
  },
  Object {
    "latitude": "42.7074332",
    "longitude": "23.1480301",
    "name": "Bendydick Chickenstrips",
    "partner_id": 21,
  },
  Object {
    "latitude": "42.8884016",
    "longitude": "24.7147034",
    "name": "Billybong Clombyclomp",
    "partner_id": 22,
  },
  Object {
    "latitude": "42.4229411",
    "longitude": "25.6399245",
    "name": "Wellington Crackerjack",
    "partner_id": 29,
  },
  Object {
    "latitude": "42.6479375",
    "longitude": "23.2782796",
    "name": "Bunsenburner Crumplehorn",
    "partner_id": 30,
  },
  Object {
    "latitude": "43.2023394",
    "longitude": "27.9086398",
    "name": "Buckminster Fullerene",
    "partner_id": 23,
  },
  Object {
    "latitude": "42.6604717",
    "longitude": "23.4641794",
    "name": "Bombadil Rivendell",
    "partner_id": 25,
  },
]
`;
